layer at (0,0) size 800x600
  RenderView at (0,0) size 800x600
layer at (0,0) size 800x600
  RenderBlock {HTML} at (0,0) size 800x600
    RenderBody {BODY} at (0,0) size 800x600
      RenderDetails {DETAILS} at (0,0) size 800x40
        RenderBlock (anonymous) at (0,0) size 800x20
          RenderSummary {SUMMARY} at (0,0) size 800x20
            RenderDetailsMarker {DIV} at (0,5) size 10x10: down
            RenderText {#text} at (16,0) size 54x19
              text run at (16,0) width 54: "summary"
        RenderBlock (anonymous) at (0,20) size 800x20
          RenderSummary {SUMMARY} at (0,0) size 800x20
            RenderText {#text} at (0,0) size 37x19
              text run at (0,0) width 37: "new 1"
caret: position 0 of child 0 {DIV} of {#shadow-root} of child 1 {SUMMARY} of child 1 {DETAILS} of body
