layer at (0,0) size 800x600
  RenderView at (0,0) size 800x600
layer at (0,0) size 800x600
  RenderSVGRoot {svg} at (0,0) size 555x154
    RenderSVGHiddenContainer {defs} at (0,0) size 0x0
      RenderSVGResourceLinearGradient {linearGradient} [id="cycle2"] [gradientUnits=objectBoundingBox] [start=(0,0)] [end=(1,0)]
        RenderSVGGradientStop {stop} [offset=0.00] [color=#FF0000]
        RenderSVGGradientStop {stop} [offset=1.00] [color=#FFA500]
      RenderSVGResourceLinearGradient {linearGradient} [id="cycle1"] [gradientUnits=objectBoundingBox] [start=(0,0)] [end=(1,0)]
    RenderSVGPath {rect} at (0,0) size 100x100 [fill={[type=LINEAR-GRADIENT] [id="cycle1"]}] [x=0.00] [y=0.00] [width=100.00] [height=100.00]
    RenderSVGText {text} at (10,135) size 545x19 contains 1 chunk(s)
      RenderSVGInlineText {#text} at (0,0) size 545x19
        chunk 1 text run 1 at (10.00,150.00) startOffset 0 endOffset 85 width 545.00: "The square above should show a gradient now that webkit supports proper fill fallback"
