layer at (0,0) size 1006x584
  RenderView at (0,0) size 800x584
layer at (0,0) size 800x584
  RenderBlock {HTML} at (0,0) size 800x584
    RenderBody {BODY} at (8,8) size 784x560
layer at (8,8) size 784x160
  RenderBlock {P} at (0,0) size 784x160 [border: (10px solid #800000)]
    RenderText {#text} at (30,30) size 169x22
      text run at (30,30) width 169: "This is some column text."
    RenderBR {BR} at (199,46) size 0x0
    RenderText {#text} at (30,52) size 169x22
      text run at (30,52) width 169: "This is some column text."
    RenderBR {BR} at (199,68) size 0x0
    RenderText {#text} at (30,74) size 169x22
      text run at (30,74) width 169: "This is some column text."
    RenderBR {BR} at (199,90) size 0x0
    RenderText {#text} at (30,96) size 169x22
      text run at (30,96) width 169: "This is some column text."
    RenderBR {BR} at (199,112) size 0x0
    RenderText {#text} at (30,130) size 169x22
      text run at (30,130) width 169: "This is some column text."
    RenderBR {BR} at (199,146) size 0x0
    RenderText {#text} at (30,152) size 169x22
      text run at (30,152) width 169: "This is some column text."
    RenderBR {BR} at (199,168) size 0x0
    RenderText {#text} at (30,174) size 169x22
      text run at (30,174) width 169: "This is some column text."
    RenderBR {BR} at (199,190) size 0x0
    RenderText {#text} at (30,196) size 169x22
      text run at (30,196) width 169: "This is some column text."
    RenderBR {BR} at (199,212) size 0x0
    RenderText {#text} at (30,230) size 169x22
      text run at (30,230) width 169: "This is some column text."
    RenderBR {BR} at (199,246) size 0x0
    RenderText {#text} at (30,252) size 169x22
      text run at (30,252) width 169: "This is some column text."
    RenderBR {BR} at (199,268) size 0x0
    RenderText {#text} at (30,274) size 169x22
      text run at (30,274) width 169: "This is some column text."
    RenderBR {BR} at (199,290) size 0x0
    RenderText {#text} at (30,296) size 169x22
      text run at (30,296) width 169: "This is some column text."
    RenderBR {BR} at (199,312) size 0x0
    RenderText {#text} at (30,330) size 169x22
      text run at (30,330) width 169: "This is some column text."
    RenderBR {BR} at (199,346) size 0x0
layer at (8,184) size 784x160
  RenderBlock {P} at (0,176) size 784x160 [border: (10px solid #800000)]
    RenderText {#text} at (91,30) size 169x22
      text run at (91,30) width 4 RTL: "."
      text run at (95,30) width 165: "This is some column text"
    RenderBR {BR} at (91,46) size 0x0
    RenderText {#text} at (91,52) size 169x22
      text run at (91,52) width 4 RTL: "."
      text run at (95,52) width 165: "This is some column text"
    RenderBR {BR} at (91,68) size 0x0
    RenderText {#text} at (91,74) size 169x22
      text run at (91,74) width 4 RTL: "."
      text run at (95,74) width 165: "This is some column text"
    RenderBR {BR} at (91,90) size 0x0
    RenderText {#text} at (91,96) size 169x22
      text run at (91,96) width 4 RTL: "."
      text run at (95,96) width 165: "This is some column text"
    RenderBR {BR} at (91,112) size 0x0
    RenderText {#text} at (91,130) size 169x22
      text run at (91,130) width 4 RTL: "."
      text run at (95,130) width 165: "This is some column text"
    RenderBR {BR} at (91,146) size 0x0
    RenderText {#text} at (91,152) size 169x22
      text run at (91,152) width 4 RTL: "."
      text run at (95,152) width 165: "This is some column text"
    RenderBR {BR} at (91,168) size 0x0
    RenderText {#text} at (91,174) size 169x22
      text run at (91,174) width 4 RTL: "."
      text run at (95,174) width 165: "This is some column text"
    RenderBR {BR} at (91,190) size 0x0
    RenderText {#text} at (91,196) size 169x22
      text run at (91,196) width 4 RTL: "."
      text run at (95,196) width 165: "This is some column text"
    RenderBR {BR} at (91,212) size 0x0
    RenderText {#text} at (91,230) size 169x22
      text run at (91,230) width 4 RTL: "."
      text run at (95,230) width 165: "This is some column text"
    RenderBR {BR} at (91,246) size 0x0
    RenderText {#text} at (91,252) size 169x22
      text run at (91,252) width 4 RTL: "."
      text run at (95,252) width 165: "This is some column text"
    RenderBR {BR} at (91,268) size 0x0
    RenderText {#text} at (91,274) size 169x22
      text run at (91,274) width 4 RTL: "."
      text run at (95,274) width 165: "This is some column text"
    RenderBR {BR} at (91,290) size 0x0
    RenderText {#text} at (91,296) size 169x22
      text run at (91,296) width 4 RTL: "."
      text run at (95,296) width 165: "This is some column text"
    RenderBR {BR} at (91,312) size 0x0
    RenderText {#text} at (91,330) size 169x22
      text run at (91,330) width 4 RTL: "."
      text run at (95,330) width 165: "This is some column text"
    RenderBR {BR} at (91,346) size 0x0
