layer at (0,0) size 480x360
  RenderView at (0,0) size 480x360
layer at (0,0) size 480x360
  RenderSVGRoot {svg} at (0,0) size 480x360
    RenderSVGContainer {g} at (30,6) size 396x252
      RenderSVGContainer {g} at (30,6) size 396x252
        RenderSVGText {text} at (5,1) size 54x8 contains 1 chunk(s)
          RenderSVGInlineText {#text} at (0,0) size 54x8
            chunk 1 text run 1 at (5.00,7.00) startOffset 0 endOffset 21 width 54.00: "Test default value of"
        RenderSVGText {text} at (5,8) size 61x8 contains 1 chunk(s)
          RenderSVGInlineText {#text} at (0,0) size 61x8
            chunk 1 text run 1 at (5.00,14.00) startOffset 0 endOffset 21 width 61.00: "zoomAndPan attribute."
        RenderSVGContainer {g} at (54,126) size 372x132
          RenderSVGPath {circle} at (54,126) size 132x132 [stroke={[type=SOLID] [color=#0000FF]}] [fill={[type=SOLID] [color=#000000]}] [cx=20.00] [cy=32.00] [r=10.00]
          RenderSVGPath {circle} at (114,126) size 132x132 [stroke={[type=SOLID] [color=#0000FF]}] [fill={[type=SOLID] [color=#000000]}] [cx=30.00] [cy=32.00] [r=10.00]
          RenderSVGPath {circle} at (294,126) size 132x132 [stroke={[type=SOLID] [color=#0000FF]}] [fill={[type=SOLID] [color=#000000]}] [cx=60.00] [cy=32.00] [r=10.00]
          RenderSVGPath {circle} at (234,126) size 132x132 [stroke={[type=SOLID] [color=#0000FF]}] [fill={[type=SOLID] [color=#000000]}] [cx=50.00] [cy=32.00] [r=10.00]
          RenderSVGPath {circle} at (174,126) size 132x132 [stroke={[type=SOLID] [color=#0000FF]}] [fill={[type=SOLID] [color=#000000]}] [cx=40.00] [cy=32.00] [r=10.00]
    RenderSVGText {text} at (10,304) size 264x45 contains 1 chunk(s)
      RenderSVGInlineText {#text} at (0,0) size 264x45
        chunk 1 text run 1 at (10.00,340.00) startOffset 0 endOffset 16 width 263.50: "$Revision: 1.6 $"
    RenderSVGPath {rect} at (0,0) size 480x360 [stroke={[type=SOLID] [color=#000000]}] [x=1.00] [y=1.00] [width=478.00] [height=358.00]
