layer at (0,0) size 1030x584
  RenderView at (0,0) size 800x584
layer at (0,0) size 800x584
  RenderBlock {HTML} at (0,0) size 800x584
    RenderBody {BODY} at (8,8) size 784x568
      RenderBlock {DIV} at (0,0) size 784x22
        RenderText {#text} at (0,0) size 409x22
          text run at (0,0) width 409: "The six boxes below should be centered in two rows of three."
layer at (400,30) size 630x420
  RenderBlock (floating) {DIV} at (0,22) size 630x420
    RenderBR {BR} at (630,0) size 0x22
    RenderText {#text} at (0,0) size 0x0
    RenderText {#text} at (0,0) size 0x0
    RenderText {#text} at (0,0) size 0x0
layer at (90,35) size 200x200
  RenderBlock (floating) {DIV} at (5,5) size 200x200 [bgcolor=#000000]
    RenderImage {IMG} at (0,0) size 200x200
layer at (300,35) size 200x200
  RenderBlock (floating) {DIV} at (215,5) size 200x200 [bgcolor=#000000]
    RenderImage {IMG} at (0,0) size 200x200
layer at (510,35) size 200x200
  RenderBlock (floating) {DIV} at (425,5) size 200x200 [bgcolor=#000000]
    RenderImage {IMG} at (0,0) size 200x200
layer at (90,245) size 200x200
  RenderBlock (floating) {DIV} at (5,215) size 200x200 [bgcolor=#000000]
    RenderImage {IMG} at (0,0) size 200x200
layer at (300,245) size 200x200
  RenderBlock (floating) {DIV} at (215,215) size 200x200 [bgcolor=#000000]
    RenderImage {IMG} at (0,0) size 200x200
layer at (510,245) size 200x200
  RenderBlock (floating) {DIV} at (425,215) size 200x200 [bgcolor=#000000]
    RenderImage {IMG} at (0,0) size 200x200
