layer at (0,0) size 800x600
  RenderView at (0,0) size 800x600
layer at (0,0) size 800x600
  RenderSVGRoot {svg} at (160,0) size 492x534
    RenderSVGContainer {g} at (160,0) size 282x78 [transform={m=((0.10,0.00)(0.00,0.10)) t=(10.00,10.00)}]
      RenderSVGText {text} at (0,-109) size 467x135 contains 1 chunk(s)
        RenderSVGInlineText {#text} at (0,0) size 467x135
          chunk 1 text run 1 at (0.00,0.00) startOffset 0 endOffset 9 width 466.67: "0,1,2,3,4"
    RenderSVGContainer {g} at (160,84) size 282x84 [transform={m=((1.00,0.00)(0.00,1.00)) t=(10.00,25.00)}]
      RenderSVGText {text} at (0,-11) size 47x14 contains 1 chunk(s)
        RenderSVGInlineText {#text} at (0,0) size 47x14
          chunk 1 text run 1 at (0.00,0.00) startOffset 0 endOffset 9 width 46.67: "0,1,2,3,4"
    RenderSVGContainer {g} at (160,168) size 288x144 [transform={m=((12.00,0.00)(0.00,12.00)) t=(10.00,40.00)}]
      RenderSVGText {text} at (0,-1) size 4x2 contains 1 chunk(s)
        RenderSVGInlineText {#text} at (0,0) size 4x2
          chunk 1 text run 1 at (0.00,0.00) startOffset 0 endOffset 9 width 3.89: "0,1,2,3,4"
    RenderSVGContainer {g} at (160,186) size 288x288 [transform={m=((24.00,0.00)(0.00,24.00)) t=(10.00,55.00)}]
      RenderSVGText {text} at (0,-1) size 2x2 contains 1 chunk(s)
        RenderSVGInlineText {#text} at (0,0) size 2x2
          chunk 1 text run 1 at (0.00,0.00) startOffset 0 endOffset 9 width 1.94: "0,1,2,3,4"
    RenderSVGContainer {g} at (160,372) size 492x162 [transform={m=((0.30,0.00)(0.00,0.30)) t=(10.00,65.00)}]
      RenderSVGText {text} at (0,-8) size 273x86 contains 1 chunk(s)
        RenderSVGTSpan {tspan} at (0,0) size 223x11
          RenderSVGInlineText {#text} at (0,0) size 223x11
            chunk 1 text run 1 at (0.00,0.00) startOffset 0 endOffset 40 width 222.22: "For this test case to be successful, all"
        RenderSVGInlineText {#text} at (222,0) size 6x11
          chunk 1 text run 1 at (222.22,0.00) startOffset 0 endOffset 1 width 5.56: " "
        RenderSVGTSpan {tspan} at (0,0) size 245x11
          RenderSVGInlineText {#text} at (0,15) size 245x11
            chunk 1 text run 1 at (0.00,15.00) startOffset 0 endOffset 44 width 244.44: "lines of text must look the same. In Safari "
        RenderSVGInlineText {#text} at (0,0) size 0x0
        RenderSVGTSpan {tspan} at (0,0) size 262x11
          RenderSVGInlineText {#text} at (0,30) size 262x11
            chunk 1 text run 1 at (0.00,30.00) startOffset 0 endOffset 47 width 261.11: "Beta 3, a text with a font size of 1 or smaller"
        RenderSVGInlineText {#text} at (261,30) size 6x11
          chunk 1 text run 1 at (261.11,30.00) startOffset 0 endOffset 1 width 5.56: " "
        RenderSVGTSpan {tspan} at (0,0) size 267x11
          RenderSVGInlineText {#text} at (0,45) size 267x11
            chunk 1 text run 1 at (0.00,45.00) startOffset 0 endOffset 48 width 266.67: "is not painted correctly, even if the coordinate"
        RenderSVGInlineText {#text} at (266,45) size 7x11
          chunk 1 text run 1 at (266.67,45.00) startOffset 0 endOffset 1 width 5.56: " "
        RenderSVGTSpan {tspan} at (0,0) size 195x11
          RenderSVGInlineText {#text} at (0,60) size 195x11
            chunk 1 text run 1 at (0.00,60.00) startOffset 0 endOffset 35 width 194.44: "transformations make it equivalent."
        RenderSVGInlineText {#text} at (194,60) size 6x11
          chunk 1 text run 1 at (194.44,60.00) startOffset 0 endOffset 1 width 5.56: " "
        RenderSVGTSpan {tspan} at (0,0) size 50x11
          RenderSVGInlineText {#text} at (0,75) size 50x11
            chunk 1 text run 1 at (0.00,75.00) startOffset 0 endOffset 9 width 50.00: "Bug 14242"
        RenderSVGInlineText {#text} at (0,0) size 0x0
