layer at (0,0) size 800x600
  RenderView at (0,0) size 800x600
layer at (0,0) size 800x600
  RenderSVGRoot {svg} at (33,21) size 622x198
    RenderSVGContainer {g} at (33,21) size 622x198 [transform={m=((1.00,0.00)(0.00,1.50)) t=(0.00,0.00)}]
      RenderSVGText {text} at (20,9) size 373x78 contains 1 chunk(s)
        RenderSVGInlineText {#text} at (0,0) size 373x78
          chunk 1 text run 1 at (20.00,70.00) startOffset 0 endOffset 15 width 372.78: "Pattern on fill"
      RenderSVGResourcePattern {pattern} [id="dynPattern"] [patternUnits=userSpaceOnUse] [patternContentUnits=userSpaceOnUse]
        RenderSVGPath {rect} at (8,11) size 17x28 [fill={[type=SOLID] [color=#FF0000]}] [x=5.00] [y=5.00] [width=10.00] [height=10.00]
        RenderSVGPath {rect} at (16,25) size 18x25 [fill={[type=SOLID] [color=#008000]}] [x=10.00] [y=10.00] [width=10.00] [height=10.00]
