layer at (0,0) size 800x600
  RenderView at (0,0) size 800x600
layer at (0,0) size 800x600
  RenderBlock {HTML} at (0,0) size 800x600
    RenderBody {BODY} at (0,0) size 800x600
      RenderDetails {DETAILS} at (0,0) size 800x44
        RenderSummary {SUMMARY} at (0,0) size 800x22
          RenderDetailsMarker {DIV} at (0,6) size 10x10: down
          RenderText {#text} at (16,0) size 40x22
            text run at (16,0) width 40: "new 1"
        RenderSummary {SUMMARY} at (0,22) size 800x22
          RenderText {#text} at (0,0) size 64x22
            text run at (0,0) width 64: "summary"
caret: position 0 of child 0 {DIV} of {#shadow-root} of child 1 {SUMMARY} of child 1 {DETAILS} of body
