layer at (0,0) size 800x600
  RenderView at (0,0) size 800x600
layer at (0,0) size 450x500
  RenderSVGRoot {svg} at (90,36) size 249x437
    RenderSVGHiddenContainer {defs} at (0,0) size 0x0
      RenderSVGText {text} at (0,-15) size 42x19 contains 1 chunk(s)
        RenderSVGInlineText {#text} at (0,0) size 42x19
          chunk 1 text run 1 at (0.00,0.00) startOffset 0 endOffset 6 width 42.00: "sample"
    RenderSVGContainer {g} at (90,36) size 249x437
      RenderSVGText {text} at (141,36) size 168x17 contains 1 chunk(s)
        RenderSVGInlineText {#text} at (0,0) size 168x17
          chunk 1 (middle anchor) text run 1 at (141.00,50.00) startOffset 0 endOffset 26 width 168.00: "Text Layout Properties (2)"
      RenderSVGText {text} at (186,65) size 78x12 contains 1 chunk(s)
        RenderSVGInlineText {#text} at (0,0) size 78x12
          chunk 1 (middle anchor) text run 1 at (186.50,75.00) startOffset 0 endOffset 19 width 77.00: "Baseline Properties"
      RenderSVGContainer {g} at (154,88) size 142x49
        RenderSVGText {text} at (165,88) size 120x35 contains 1 chunk(s)
          RenderSVGTSpan {tspan} at (0,0) size 33x18
            RenderSVGInlineText {#text} at (0,0) size 33x18
              chunk 1 (middle anchor) text run 1 at (165.50,101.50) startOffset 0 endOffset 5 width 32.00: "super"
          RenderSVGInlineText {#text} at (32,9) size 30x17
            chunk 1 (middle anchor) text run 1 at (197.50,110.00) startOffset 0 endOffset 5 width 29.00: " and "
          RenderSVGTSpan {tspan} at (0,0) size 21x18
            RenderSVGInlineText {#text} at (61,17) size 21x18
              chunk 1 (middle anchor) text run 1 at (226.50,118.50) startOffset 0 endOffset 3 width 20.00: "sub"
          RenderSVGInlineText {#text} at (81,9) size 39x17
            chunk 1 (middle anchor) text run 1 at (246.50,110.00) startOffset 0 endOffset 7 width 38.00: "scripts"
        RenderSVGText {text} at (154,127) size 142x10 contains 1 chunk(s)
          RenderSVGInlineText {#text} at (0,0) size 142x10
            chunk 1 (middle anchor) text run 1 at (154.50,135.00) startOffset 0 endOffset 43 width 141.00: "baseline-shift=\"super\"/baseline-shift=\"sub\""
      RenderSVGContainer {g} at (123,149) size 204x33
        RenderSVGText {text} at (123,149) size 204x23 contains 1 chunk(s)
          RenderSVGTSpan {tspan} at (0,0) size 45x17
            RenderSVGInlineText {#text} at (0,0) size 45x17
              chunk 1 (middle anchor) text run 1 at (123.50,162.00) startOffset 0 endOffset 8 width 44.00: "positive"
          RenderSVGInlineText {#text} at (44,3) size 30x17
            chunk 1 (middle anchor) text run 1 at (167.50,165.00) startOffset 0 endOffset 5 width 29.00: " and "
          RenderSVGTSpan {tspan} at (0,0) size 54x17
            RenderSVGInlineText {#text} at (73,6) size 54x17
              chunk 1 (middle anchor) text run 1 at (196.50,168.00) startOffset 0 endOffset 9 width 53.00: "negative "
          RenderSVGInlineText {#text} at (126,3) size 78x17
            chunk 1 (middle anchor) text run 1 at (249.50,165.00) startOffset 0 endOffset 14 width 77.00: "baseline-shift"
        RenderSVGText {text} at (185,172) size 80x10 contains 1 chunk(s)
          RenderSVGInlineText {#text} at (0,0) size 80x10
            chunk 1 (middle anchor) text run 1 at (185.00,180.00) startOffset 0 endOffset 23 width 80.00: "baseline-shift=\"+/-20%\""
      RenderSVGText {text} at (173,200) size 104x12 contains 1 chunk(s)
        RenderSVGInlineText {#text} at (0,0) size 104x12
          chunk 1 (middle anchor) text run 1 at (173.50,210.00) startOffset 0 endOffset 25 width 103.00: "Multi-line Text Selection"
      RenderSVGText {text} at (159,218) size 132x9 contains 1 chunk(s)
        RenderSVGInlineText {#text} at (0,0) size 132x9
          chunk 1 (middle anchor) text run 1 at (159.50,225.00) startOffset 0 endOffset 42 width 131.00: "(Try selecting the following text regions)"
      RenderSVGText {text} at (120,237) size 197x32 contains 1 chunk(s)
        RenderSVGTSpan {tspan} at (0,0) size 193x17
          RenderSVGInlineText {#text} at (0,0) size 193x17
            chunk 1 text run 1 at (120.00,250.00) startOffset 0 endOffset 33 width 193.00: "Text selections can span multiple"
        RenderSVGInlineText {#text} at (193,0) size 4x17
          chunk 1 text run 1 at (313.00,250.00) startOffset 0 endOffset 1 width 4.00: " "
        RenderSVGTSpan {tspan} at (0,0) size 158x17
          RenderSVGInlineText {#text} at (0,15) size 158x17
            chunk 1 text run 1 at (120.00,265.00) startOffset 0 endOffset 27 width 158.00: "lines via <tspan> elements."
        RenderSVGInlineText {#text} at (0,0) size 0x0
      RenderSVGText {text} at (0,-67) size 106x122 contains 1 chunk(s)
        RenderSVGTSpan {tspan} at (0,0) size 106x122
          RenderSVGInlineText {#text} at (0,50) size 106x122
            chunk 1 text run 1 at (0.00,0.00) startOffset 0 endOffset 1 width 12.00: "T"
            chunk 1 text run 1 at (10.00,-25.00) startOffset 0 endOffset 1 width 9.00: "e"
            chunk 1 text run 1 at (25.00,-40.00) startOffset 0 endOffset 1 width 9.00: "x"
            chunk 1 text run 1 at (50.00,-50.00) startOffset 0 endOffset 1 width 5.00: "t"
            chunk 1 text run 1 at (75.00,-40.00) startOffset 0 endOffset 1 width 7.00: "-"
            chunk 1 text run 1 at (90.00,-25.00) startOffset 0 endOffset 1 width 9.00: "c"
            chunk 1 text run 1 at (100.00,0.00) startOffset 0 endOffset 1 width 6.00: "i"
            chunk 1 text run 1 at (90.00,25.00) startOffset 0 endOffset 1 width 7.00: "r"
            chunk 1 text run 1 at (75.00,40.00) startOffset 0 endOffset 1 width 9.00: "c"
            chunk 1 text run 1 at (50.00,50.00) startOffset 0 endOffset 1 width 6.00: "l"
            chunk 1 text run 1 at (25.00,40.00) startOffset 0 endOffset 1 width 9.00: "e"
            chunk 1 text run 1 at (10.00,25.00) startOffset 0 endOffset 1 width 5.00: "."
        RenderSVGInlineText {#text} at (0,0) size 0x0
      RenderSVGText {text} at (0,-17) size 89x102 contains 1 chunk(s)
        RenderSVGInlineText {#text} at (0,0) size 89x102
          chunk 1 text run 1 at (0.00,0.00) startOffset 0 endOffset 1 width 12.00: "T"
          chunk 1 text run 1 at (20.00,0.00) startOffset 0 endOffset 1 width 9.00: "e"
          chunk 1 text run 1 at (40.00,0.00) startOffset 0 endOffset 1 width 9.00: "x"
          chunk 1 text run 1 at (60.00,0.00) startOffset 0 endOffset 1 width 5.00: "t"
          chunk 1 text run 1 at (80.00,0.00) startOffset 0 endOffset 1 width 7.00: "-"
          chunk 1 text run 1 at (80.00,20.00) startOffset 0 endOffset 1 width 6.00: "i"
          chunk 1 text run 1 at (80.00,40.00) startOffset 0 endOffset 1 width 9.00: "n"
          chunk 1 text run 1 at (80.00,60.00) startOffset 0 endOffset 1 width 7.00: "-"
          chunk 1 text run 1 at (80.00,80.00) startOffset 0 endOffset 1 width 9.00: "a"
          chunk 1 text run 1 at (60.00,80.00) startOffset 0 endOffset 1 width 7.00: "-"
          chunk 1 text run 1 at (40.00,80.00) startOffset 0 endOffset 1 width 8.00: "s"
          chunk 1 text run 1 at (20.00,80.00) startOffset 0 endOffset 1 width 10.00: "q"
          chunk 1 text run 1 at (0.00,80.00) startOffset 0 endOffset 1 width 9.00: "u"
          chunk 1 text run 1 at (0.00,60.00) startOffset 0 endOffset 1 width 9.00: "a"
          chunk 1 text run 1 at (0.00,40.00) startOffset 0 endOffset 1 width 7.00: "r"
          chunk 1 text run 1 at (0.00,20.00) startOffset 0 endOffset 1 width 9.00: "e"
      RenderSVGText {text} at (154,435) size 142x21 contains 1 chunk(s)
        RenderSVGInlineText {#text} at (0,2) size 60x17
          chunk 1 (middle anchor) text run 1 at (154.00,450.00) startOffset 0 endOffset 10 width 60.00: "Text with "
        RenderSVGTSpan {tspan} at (0,0) size 45x21
          RenderSVGInlineText {#text} at (59,0) size 45x21
            chunk 1 (middle anchor) text run 1 at (214.00,450.00) startOffset 0 endOffset 1 width 5.00: "r"
            chunk 1 (middle anchor) text run 2 at (219.00,450.00) startOffset 1 endOffset 2 width 7.00: "o"
            chunk 1 (middle anchor) text run 3 at (226.00,450.00) startOffset 2 endOffset 3 width 4.00: "t"
            chunk 1 (middle anchor) text run 4 at (230.00,450.00) startOffset 3 endOffset 4 width 7.00: "a"
            chunk 1 (middle anchor) text run 5 at (237.00,450.00) startOffset 4 endOffset 5 width 4.00: "t"
            chunk 1 (middle anchor) text run 6 at (241.00,450.00) startOffset 5 endOffset 6 width 7.00: "e"
            chunk 1 (middle anchor) text run 7 at (248.00,450.00) startOffset 6 endOffset 7 width 7.00: "d"
        RenderSVGInlineText {#text} at (101,2) size 41x17
          chunk 1 (middle anchor) text run 1 at (255.00,450.00) startOffset 0 endOffset 7 width 41.00: " glyphs"
      RenderSVGText {text} at (164,452) size 124x21 contains 1 chunk(s)
        RenderSVGInlineText {#text} at (0,0) size 124x21
          chunk 1 (middle anchor) text run 1 at (166.00,465.00) startOffset 0 endOffset 1 width 13.00: "M"
          chunk 1 (middle anchor) text run 2 at (179.00,465.00) startOffset 1 endOffset 2 width 7.00: "o"
          chunk 1 (middle anchor) text run 3 at (186.00,465.00) startOffset 2 endOffset 3 width 5.00: "r"
          chunk 1 (middle anchor) text run 4 at (191.00,465.00) startOffset 3 endOffset 4 width 7.00: "e"
          chunk 1 (middle anchor) text run 5 at (198.00,465.00) startOffset 4 endOffset 5 width 4.00: " "
          chunk 1 (middle anchor) text run 6 at (202.00,465.00) startOffset 5 endOffset 6 width 5.00: "r"
          chunk 1 (middle anchor) text run 7 at (207.00,465.00) startOffset 6 endOffset 7 width 7.00: "o"
          chunk 1 (middle anchor) text run 8 at (214.00,465.00) startOffset 7 endOffset 8 width 4.00: "t"
          chunk 1 (middle anchor) text run 9 at (218.00,465.00) startOffset 8 endOffset 9 width 7.00: "a"
          chunk 1 (middle anchor) text run 10 at (225.00,465.00) startOffset 9 endOffset 10 width 4.00: "t"
          chunk 1 (middle anchor) text run 11 at (229.00,465.00) startOffset 10 endOffset 11 width 7.00: "e"
          chunk 1 (middle anchor) text run 12 at (236.00,465.00) startOffset 11 endOffset 12 width 7.00: "d"
          chunk 1 (middle anchor) text run 13 at (243.00,465.00) startOffset 12 endOffset 13 width 4.00: " "
          chunk 1 (middle anchor) text run 14 at (247.00,465.00) startOffset 13 endOffset 14 width 7.00: "g"
          chunk 1 (middle anchor) text run 15 at (254.00,465.00) startOffset 14 endOffset 15 width 3.00: "l"
          chunk 1 (middle anchor) text run 16 at (257.00,465.00) startOffset 15 endOffset 16 width 7.00: "y"
          chunk 1 (middle anchor) text run 17 at (264.00,465.00) startOffset 16 endOffset 17 width 7.00: "p"
          chunk 1 (middle anchor) text run 18 at (271.00,465.00) startOffset 17 endOffset 18 width 7.00: "h"
          chunk 1 (middle anchor) text run 19 at (278.00,465.00) startOffset 18 endOffset 19 width 6.00: "s"
    RenderSVGContainer {use} at (0,0) size 0x0
