layer at (0,0) size 800x600
  RenderView at (0,0) size 800x600
layer at (0,0) size 800x275
  RenderBlock {HTML} at (0,0) size 800x275
    RenderBody {BODY} at (8,16) size 784x38
      RenderBlock {P} at (0,0) size 784x38 [color=#000080]
        RenderText {#text} at (0,0) size 755x38
          text run at (0,0) width 389: "The blue boxes below should be in numeric order and form a "
          text run at (389,0) width 366: "backwards \"D\". (Boxes labelled \"A\" should be in the first"
          text run at (0,19) width 55: "column; "
          text run at (55,19) width 402: "boxes labelled \"B\" should be in the second; arrows indicate the "
          text run at (457,19) width 118: "correct alignment.)"
      RenderBlock {DIV} at (16,54) size 320x0
        RenderBlock (floating) {P} at (190,4) size 126x33 [color=#FFFFFF] [bgcolor=#000080] [border: (3px solid #0000FF)]
          RenderText {#text} at (79,7) size 40x19
            text run at (79,7) width 40: "B 2 \x{21E8}"
        RenderBlock (floating) {P} at (56,4) size 126x33 [color=#FFFFFF] [bgcolor=#000080] [border: (3px solid #0000FF)]
          RenderText {#text} at (78,7) size 41x19
            text run at (78,7) width 41: "A 1 \x{21E8}"
        RenderBlock (floating) {P} at (190,45) size 126x33 [color=#FFFFFF] [bgcolor=#000080] [border: (3px solid #0000FF)]
          RenderText {#text} at (79,7) size 40x19
            text run at (79,7) width 40: "B 4 \x{21E8}"
        RenderBlock (floating) {P} at (4,45) size 126x33 [color=#FFFFFF] [bgcolor=#000080] [border: (3px solid #0000FF)]
          RenderText {#text} at (7,7) size 41x19
            text run at (7,7) width 41: "\x{21E6} A 3"
        RenderBlock (floating) {P} at (190,86) size 126x33 [color=#FFFFFF] [bgcolor=#000080] [border: (3px solid #0000FF)]
          RenderText {#text} at (79,7) size 40x19
            text run at (79,7) width 40: "B 6 \x{21E8}"
        RenderBlock (floating) {P} at (4,86) size 126x33 [color=#FFFFFF] [bgcolor=#000080] [border: (3px solid #0000FF)]
          RenderText {#text} at (7,7) size 41x19
            text run at (7,7) width 41: "\x{21E6} A 5"
        RenderBlock (floating) {P} at (4,127) size 126x33 [color=#FFFFFF] [bgcolor=#000080] [border: (3px solid #0000FF)]
          RenderText {#text} at (7,7) size 41x19
            text run at (7,7) width 41: "\x{21E6} A 7"
        RenderBlock (floating) {P} at (190,127) size 126x33 [color=#FFFFFF] [bgcolor=#000080] [border: (3px solid #0000FF)]
          RenderText {#text} at (79,7) size 40x19
            text run at (79,7) width 40: "B 8 \x{21E8}"
        RenderBlock (floating) {P} at (190,168) size 126x33 [color=#FFFFFF] [bgcolor=#000080] [border: (3px solid #0000FF)]
          RenderText {#text} at (71,7) size 48x19
            text run at (71,7) width 48: "B 10 \x{21E8}"
        RenderBlock (floating) {P} at (56,168) size 126x33 [color=#FFFFFF] [bgcolor=#000080] [border: (3px solid #0000FF)]
          RenderText {#text} at (78,7) size 41x19
            text run at (78,7) width 41: "A 9 \x{21E8}"
