layer at (0,0) size 800x600
  RenderView at (0,0) size 800x600
layer at (0,0) size 800x600
  RenderBlock {HTML} at (0,0) size 800x600
    RenderBody {BODY} at (8,8) size 784x584
layer at (8,8) size 784x30
  RenderBlock {DIV} at (0,0) size 784x30
    RenderTextControl {INPUT} at (2,2) size 166x26
    RenderText {#text} at (0,0) size 0x0
layer at (12,12) size 162x22
  RenderBlock {DIV} at (2,2) size 162x22
caret: position 0 of child 0 {DIV} of {#shadow-root} of child 1 {INPUT} of child 1 {DIV} of body
