layer at (0,0) size 800x600
  RenderView at (0,0) size 800x600
layer at (0,0) size 800x600
  RenderSVGRoot {svg} at (45,0) size 260x65
    RenderSVGContainer {g} at (45,0) size 260x65
      RenderSVGPath {svg:line} at (45,0) size 10x65 [stroke={[type=SOLID] [color=#008000]}] [fill={[type=SOLID] [color=#000000]}] [x1=10.00] [y1=0.80] [x2=10.00] [y2=12.40]
      RenderSVGPath {svg:line} at (295,0) size 10x65 [stroke={[type=SOLID] [color=#008000]}] [fill={[type=SOLID] [color=#000000]}] [x1=60.00] [y1=0.80] [x2=60.00] [y2=12.40]
      RenderSVGPath {svg:rect} at (50,0) size 250x65 [fill={[type=SOLID] [color=#FF0000] [opacity=0.40]}] [x=10.00] [y=0.80] [width=50.00] [height=11.40]
    RenderSVGText {text} at (10,0) size 50x13 contains 1 chunk(s)
      RenderSVGInlineText {#text} at (0,0) size 50x13
        chunk 1 text run 1 at (10.00,10.00) startOffset 0 endOffset 15 width 73.20: "Text to Squeeze"
selection start: position 0 of child 0 {#text} of child 5 {text} of child 0 {svg} of document
selection end:   position 15 of child 0 {#text} of child 5 {text} of child 0 {svg} of document
