layer at (0,0) size 800x600
  RenderView at (0,0) size 800x600
layer at (0,0) size 800x600
  RenderSVGRoot {svg} at (0,0) size 800x600
    RenderSVGContainer {g} at (28,0) size 632x429
      RenderSVGText {text} at (19,2) size 330x73 contains 1 chunk(s)
        RenderSVGInlineText {#text} at (0,0) size 330x73
          chunk 1 text run 1 at (19.00,60.00) startOffset 0 endOffset 11 width 330.00: "Normal Text"
      RenderSVGText {text} at (19,62) size 296x73 contains 1 chunk(s)
        RenderSVGInlineText {#text} at (0,0) size 296x73
          chunk 1 text run 1 at (19.00,120.00) startOffset 0 endOffset 12 width 295.80: "Fill opacity"
      RenderSVGText {text} at (19,122) size 375x73 contains 1 chunk(s)
        RenderSVGInlineText {#text} at (0,0) size 375x73
          chunk 1 text run 1 at (19.00,180.00) startOffset 0 endOffset 14 width 374.40: "Stroke opacity"
      RenderSVGText {text} at (19,182) size 204x73 contains 1 chunk(s)
        RenderSVGInlineText {#text} at (0,0) size 204x73
          chunk 1 text run 1 at (19.00,240.00) startOffset 0 endOffset 7 width 203.40: "Opacity"
    RenderSVGText {text} at (10,304) size 269x45 contains 1 chunk(s)
      RenderSVGInlineText {#text} at (0,0) size 269x45
        chunk 1 text run 1 at (10.00,340.00) startOffset 0 endOffset 16 width 268.20: "$Revision: 1.3 $"
    RenderSVGPath {rect} at (0,0) size 800x600 [stroke={[type=SOLID] [color=#000000]}] [x=1.00] [y=1.00] [width=478.00] [height=358.00]
selection start: position 0 of child 0 {#text} of child 1 {text} of child 13 {g} of child 14 {svg} of document
selection end:   position 16 of child 0 {#text} of child 15 {text} of child 14 {svg} of document
