layer at (0,0) size 480x360
  RenderView at (0,0) size 480x360
layer at (0,0) size 480x360
  RenderSVGRoot {svg} at (0,0) size 480x360
    RenderSVGText {text} at (10,301) size 270x53 contains 1 chunk(s)
      RenderSVGInlineText {#text} at (0,0) size 270x53
        chunk 1 text run 1 at (10.00,340.00) startOffset 0 endOffset 16 width 270.00: "$Revision: 1.6 $"
    RenderSVGPath {rect} at (0,0) size 480x360 [stroke={[type=SOLID] [color=#000000]}] [x=1.00] [y=1.00] [width=478.00] [height=358.00]
    RenderSVGText {text} at (216,10) size 48x27 contains 1 chunk(s)
      RenderSVGInlineText {#text} at (0,0) size 48x27
        chunk 1 (middle anchor) text run 1 at (216.50,30.00) startOffset 0 endOffset 5 width 47.00: "begin"
    RenderSVGContainer {g} at (111,57) size 239x213 [transform={m=((1.00,0.00)(0.00,1.00)) t=(100.00,80.00)}]
      RenderSVGContainer {g} at (111,71) size 69x194 [transform={m=((1.00,0.00)(0.00,1.00)) t=(80.00,5.00)}]
        RenderSVGText {text} at (-68,-14) size 68x19 contains 1 chunk(s)
          RenderSVGInlineText {#text} at (0,0) size 68x19
            chunk 1 (end anchor) text run 1 at (-68.00,0.00) startOffset 0 endOffset 11 width 68.00: "unspecified"
        RenderSVGText {text} at (-33,11) size 33x19 contains 1 chunk(s)
          RenderSVGInlineText {#text} at (0,0) size 33x19
            chunk 1 (end anchor) text run 1 at (-33.00,25.00) startOffset 0 endOffset 6 width 33.00: "offset"
        RenderSVGText {text} at (-62,36) size 62x19 contains 1 chunk(s)
          RenderSVGInlineText {#text} at (0,0) size 62x19
            chunk 1 (end anchor) text run 1 at (-62.00,50.00) startOffset 0 endOffset 10 width 62.00: "event base"
        RenderSVGText {text} at (-56,61) size 56x19 contains 1 chunk(s)
          RenderSVGInlineText {#text} at (0,0) size 56x19
            chunk 1 (end anchor) text run 1 at (-56.00,75.00) startOffset 0 endOffset 9 width 56.00: "sync base"
        RenderSVGText {text} at (-58,86) size 58x19 contains 1 chunk(s)
          RenderSVGInlineText {#text} at (0,0) size 58x19
            chunk 1 (end anchor) text run 1 at (-58.00,100.00) startOffset 0 endOffset 10 width 58.00: "indefinite"
        RenderSVGText {text} at (-48,111) size 48x19 contains 1 chunk(s)
          RenderSVGInlineText {#text} at (0,0) size 48x19
            chunk 1 (end anchor) text run 1 at (-48.00,125.00) startOffset 0 endOffset 8 width 48.00: "repeat()"
        RenderSVGText {text} at (-69,136) size 69x19 contains 1 chunk(s)
          RenderSVGInlineText {#text} at (0,0) size 69x19
            chunk 1 (end anchor) text run 1 at (-69.00,150.00) startOffset 0 endOffset 11 width 69.00: "accessKey()"
        RenderSVGText {text} at (-66,161) size 66x19 contains 1 chunk(s)
          RenderSVGInlineText {#text} at (0,0) size 66x19
            chunk 1 (end anchor) text run 1 at (-66.00,175.00) startOffset 0 endOffset 11 width 66.00: "wallclock()"
      RenderSVGContainer {g} at (196,57) size 152x11 [transform={m=((1.00,0.00)(0.00,1.00)) t=(100.00,-15.00)}]
        RenderSVGText {text} at (-4,-8) size 8x11 contains 1 chunk(s)
          RenderSVGInlineText {#text} at (0,0) size 8x11
            chunk 1 (middle anchor) text run 1 at (-3.50,0.00) startOffset 0 endOffset 2 width 7.00: "0s"
        RenderSVGText {text} at (8,-8) size 8x11 contains 1 chunk(s)
          RenderSVGInlineText {#text} at (0,0) size 8x11
            chunk 1 (middle anchor) text run 1 at (8.50,0.00) startOffset 0 endOffset 2 width 7.00: "1s"
        RenderSVGText {text} at (20,-8) size 8x11 contains 1 chunk(s)
          RenderSVGInlineText {#text} at (0,0) size 8x11
            chunk 1 (middle anchor) text run 1 at (20.50,0.00) startOffset 0 endOffset 2 width 7.00: "2s"
        RenderSVGText {text} at (32,-8) size 8x11 contains 1 chunk(s)
          RenderSVGInlineText {#text} at (0,0) size 8x11
            chunk 1 (middle anchor) text run 1 at (32.50,0.00) startOffset 0 endOffset 2 width 7.00: "3s"
        RenderSVGText {text} at (44,-8) size 8x11 contains 1 chunk(s)
          RenderSVGInlineText {#text} at (0,0) size 8x11
            chunk 1 (middle anchor) text run 1 at (44.50,0.00) startOffset 0 endOffset 2 width 7.00: "4s"
        RenderSVGText {text} at (56,-8) size 8x11 contains 1 chunk(s)
          RenderSVGInlineText {#text} at (0,0) size 8x11
            chunk 1 (middle anchor) text run 1 at (56.50,0.00) startOffset 0 endOffset 2 width 7.00: "5s"
        RenderSVGText {text} at (68,-8) size 8x11 contains 1 chunk(s)
          RenderSVGInlineText {#text} at (0,0) size 8x11
            chunk 1 (middle anchor) text run 1 at (68.50,0.00) startOffset 0 endOffset 2 width 7.00: "6s"
        RenderSVGText {text} at (80,-8) size 8x11 contains 1 chunk(s)
          RenderSVGInlineText {#text} at (0,0) size 8x11
            chunk 1 (middle anchor) text run 1 at (80.50,0.00) startOffset 0 endOffset 2 width 7.00: "7s"
        RenderSVGText {text} at (92,-8) size 8x11 contains 1 chunk(s)
          RenderSVGInlineText {#text} at (0,0) size 8x11
            chunk 1 (middle anchor) text run 1 at (92.50,0.00) startOffset 0 endOffset 2 width 7.00: "8s"
        RenderSVGText {text} at (116,-8) size 8x11 contains 1 chunk(s)
          RenderSVGInlineText {#text} at (0,0) size 8x11
            chunk 1 (middle anchor) text run 1 at (116.50,0.00) startOffset 0 endOffset 2 width 7.00: "0s"
        RenderSVGText {text} at (128,-8) size 8x11 contains 1 chunk(s)
          RenderSVGInlineText {#text} at (0,0) size 8x11
            chunk 1 (middle anchor) text run 1 at (128.50,0.00) startOffset 0 endOffset 2 width 7.00: "1s"
        RenderSVGText {text} at (140,-8) size 8x11 contains 1 chunk(s)
          RenderSVGInlineText {#text} at (0,0) size 8x11
            chunk 1 (middle anchor) text run 1 at (140.50,0.00) startOffset 0 endOffset 2 width 7.00: "2s"
      RenderSVGContainer {g} at (194,70) size 156x200 [transform={m=((1.00,0.00)(0.00,8.00)) t=(94.00,-10.00)}]
        RenderSVGPath {rect} at (194,70) size 12x200 [fill={[type=SOLID] [color=#EEEEEE]}] [x=0.00] [y=0.00] [width=12.00] [height=25.00]
        RenderSVGPath {rect} at (206,70) size 12x200 [fill={[type=SOLID] [color=#DDDDDD]}] [x=12.00] [y=0.00] [width=12.00] [height=25.00]
        RenderSVGPath {rect} at (218,70) size 12x200 [fill={[type=SOLID] [color=#EEEEEE]}] [x=24.00] [y=0.00] [width=12.00] [height=25.00]
        RenderSVGPath {rect} at (230,70) size 12x200 [fill={[type=SOLID] [color=#DDDDDD]}] [x=36.00] [y=0.00] [width=12.00] [height=25.00]
        RenderSVGPath {rect} at (242,70) size 12x200 [fill={[type=SOLID] [color=#EEEEEE]}] [x=48.00] [y=0.00] [width=12.00] [height=25.00]
        RenderSVGPath {rect} at (254,70) size 12x200 [fill={[type=SOLID] [color=#DDDDDD]}] [x=60.00] [y=0.00] [width=12.00] [height=25.00]
        RenderSVGPath {rect} at (266,70) size 12x200 [fill={[type=SOLID] [color=#EEEEEE]}] [x=72.00] [y=0.00] [width=12.00] [height=25.00]
        RenderSVGPath {rect} at (278,70) size 12x200 [fill={[type=SOLID] [color=#DDDDDD]}] [x=84.00] [y=0.00] [width=12.00] [height=25.00]
        RenderSVGPath {rect} at (290,70) size 12x200 [fill={[type=SOLID] [color=#EEEEEE]}] [x=96.00] [y=0.00] [width=12.00] [height=25.00]
        RenderSVGPath {rect} at (314,70) size 12x200 [fill={[type=SOLID] [color=#EEEEEE]}] [x=120.00] [y=0.00] [width=12.00] [height=25.00]
        RenderSVGPath {rect} at (326,70) size 12x200 [fill={[type=SOLID] [color=#DDDDDD]}] [x=132.00] [y=0.00] [width=12.00] [height=25.00]
        RenderSVGPath {rect} at (338,70) size 12x200 [fill={[type=SOLID] [color=#EEEEEE]}] [x=144.00] [y=0.00] [width=12.00] [height=25.00]
      RenderSVGContainer {g} at (194,74) size 156x187 [transform={m=((1.00,0.00)(0.00,1.00)) t=(100.00,0.00)}]
        RenderSVGContainer {g} at (194,74) size 12x12
          RenderSVGPath {rect} at (194,74) size 12x12 [fill={[type=SOLID] [color=#33FF33]}] [x=-6.00] [y=-6.00] [width=12.00] [height=12.00]
        RenderSVGContainer {g} at (218,99) size 12x12 [transform={m=((1.00,0.00)(0.00,1.00)) t=(0.00,25.00)}]
          RenderSVGPath {rect} at (218,99) size 12x12 [transform={m=((1.00,0.00)(0.00,1.00)) t=(24.00,0.00)}] [fill={[type=SOLID] [color=#FF3333]}] [x=-6.00] [y=-6.00] [width=12.00] [height=12.00]
        RenderSVGContainer {g} at (314,124) size 36x12 [transform={m=((1.00,0.00)(0.00,1.00)) t=(0.00,50.00)}]
          RenderSVGPath {rect} at (314,124) size 12x12 [transform={m=((1.00,0.00)(0.00,1.00)) t=(120.00,0.00)}] [fill={[type=SOLID] [color=#FF3333]}] [x=-6.00] [y=-6.00] [width=12.00] [height=12.00]
          RenderSVGPath {rect} at (338,124) size 12x12 [transform={m=((1.00,0.00)(0.00,1.00)) t=(144.00,0.00)}] [fill={[type=SOLID] [color=#FF3333]}] [x=-6.00] [y=-6.00] [width=12.00] [height=12.00]
        RenderSVGContainer {g} at (218,149) size 84x12 [transform={m=((1.00,0.00)(0.00,1.00)) t=(0.00,75.00)}]
          RenderSVGPath {rect} at (218,149) size 12x12 [transform={m=((1.00,0.00)(0.00,1.00)) t=(24.00,0.00)}] [fill={[type=SOLID] [color=#FF3333]}] [x=-6.00] [y=-6.00] [width=12.00] [height=12.00]
          RenderSVGPath {rect} at (242,149) size 12x12 [transform={m=((1.00,0.00)(0.00,1.00)) t=(48.00,0.00)}] [fill={[type=SOLID] [color=#FF3333]}] [x=-6.00] [y=-6.00] [width=12.00] [height=12.00]
          RenderSVGPath {rect} at (266,149) size 12x12 [transform={m=((1.00,0.00)(0.00,1.00)) t=(72.00,0.00)}] [fill={[type=SOLID] [color=#FF3333]}] [x=-6.00] [y=-6.00] [width=12.00] [height=12.00]
          RenderSVGPath {rect} at (290,149) size 12x12 [transform={m=((1.00,0.00)(0.00,1.00)) t=(96.00,0.00)}] [fill={[type=SOLID] [color=#FF3333]}] [x=-6.00] [y=-6.00] [width=12.00] [height=12.00]
        RenderSVGContainer {g} at (194,174) size 12x12 [transform={m=((1.00,0.00)(0.00,1.00)) t=(0.00,100.00)}]
          RenderSVGPath {rect} at (194,174) size 12x12 [fill={[type=SOLID] [color=#33FF33]}] [x=-6.00] [y=-6.00] [width=12.00] [height=12.00]
        RenderSVGContainer {g} at (230,199) size 36x12 [transform={m=((1.00,0.00)(0.00,1.00)) t=(0.00,125.00)}]
          RenderSVGPath {rect} at (230,199) size 12x12 [transform={m=((1.00,0.00)(0.00,1.00)) t=(36.00,0.00)}] [fill={[type=SOLID] [color=#FF3333]}] [x=-6.00] [y=-6.00] [width=12.00] [height=12.00]
          RenderSVGPath {rect} at (254,199) size 12x12 [transform={m=((1.00,0.00)(0.00,1.00)) t=(60.00,0.00)}] [fill={[type=SOLID] [color=#FF3333]}] [x=-6.00] [y=-6.00] [width=12.00] [height=12.00]
        RenderSVGContainer {g} at (314,224) size 36x12 [transform={m=((1.00,0.00)(0.00,1.00)) t=(0.00,150.00)}]
          RenderSVGPath {rect} at (314,224) size 12x12 [transform={m=((1.00,0.00)(0.00,1.00)) t=(120.00,0.00)}] [fill={[type=SOLID] [color=#FF3333]}] [x=-6.00] [y=-6.00] [width=12.00] [height=12.00]
          RenderSVGPath {rect} at (338,224) size 12x12 [transform={m=((1.00,0.00)(0.00,1.00)) t=(144.00,0.00)}] [fill={[type=SOLID] [color=#FF3333]}] [x=-6.00] [y=-6.00] [width=12.00] [height=12.00]
        RenderSVGContainer {g} at (194,249) size 12x12 [transform={m=((1.00,0.00)(0.00,1.00)) t=(0.00,175.00)}]
          RenderSVGPath {rect} at (194,249) size 12x12 [fill={[type=SOLID] [color=#33FF33]}] [x=-6.00] [y=-6.00] [width=12.00] [height=12.00]
