layer at (0,0) size 480x360
  RenderView at (0,0) size 480x360
layer at (0,0) size 480x360
  RenderSVGRoot {svg} at (0,0) size 480x360
    RenderSVGContainer {g} at (35,9) size 429x306
      RenderSVGHiddenContainer {defs} at (0,0) size 0x0
      RenderSVGContainer {g} at (34,9) size 431x306 [transform={m=((1.80,0.00)(0.00,1.80)) t=(0.00,0.00)}]
        RenderSVGPath {rect} at (36,18) size 414x279 [fill={[type=SOLID] [color=#C0C0C0]}] [x=20.00] [y=10.00] [width=230.00] [height=155.00]
        RenderSVGPath {line} at (57,18) size 30x297 [stroke={[type=SOLID] [color=#FFFFFF] [stroke width=15.00]}] [fill={[type=SOLID] [color=#000000]}] [x1=40.00] [y1=10.00] [x2=40.00] [y2=175.00]
        RenderSVGPath {line} at (111,18) size 30x297 [stroke={[type=SOLID] [color=#FFFFFF] [stroke width=15.00]}] [fill={[type=SOLID] [color=#000000]}] [x1=70.00] [y1=10.00] [x2=70.00] [y2=175.00]
        RenderSVGPath {line} at (165,18) size 30x297 [stroke={[type=SOLID] [color=#FFFFFF] [stroke width=15.00]}] [fill={[type=SOLID] [color=#000000]}] [x1=100.00] [y1=10.00] [x2=100.00] [y2=175.00]
        RenderSVGPath {line} at (219,18) size 30x297 [stroke={[type=SOLID] [color=#FFFFFF] [stroke width=15.00]}] [fill={[type=SOLID] [color=#000000]}] [x1=130.00] [y1=10.00] [x2=130.00] [y2=175.00]
        RenderSVGPath {line} at (273,18) size 30x297 [stroke={[type=SOLID] [color=#FFFFFF] [stroke width=15.00]}] [fill={[type=SOLID] [color=#000000]}] [x1=160.00] [y1=10.00] [x2=160.00] [y2=175.00]
        RenderSVGPath {line} at (327,18) size 30x297 [stroke={[type=SOLID] [color=#FFFFFF] [stroke width=15.00]}] [fill={[type=SOLID] [color=#000000]}] [x1=190.00] [y1=10.00] [x2=190.00] [y2=175.00]
        RenderSVGPath {line} at (381,18) size 30x297 [stroke={[type=SOLID] [color=#FFFFFF] [stroke width=15.00]}] [fill={[type=SOLID] [color=#000000]}] [x1=220.00] [y1=10.00] [x2=220.00] [y2=175.00]
        RenderSVGPath {line} at (435,18) size 30x297 [stroke={[type=SOLID] [color=#FFFFFF] [stroke width=15.00]}] [fill={[type=SOLID] [color=#000000]}] [x1=250.00] [y1=10.00] [x2=250.00] [y2=175.00]
        RenderSVGPath {rect} at (34,16) size 418x283 [stroke={[type=SOLID] [color=#000000]}] [x=20.00] [y=10.00] [width=230.00] [height=155.00]
        RenderSVGText {text} at (30,5) size 138x121 contains 1 chunk(s)
          RenderSVGInlineText {#text} at (0,0) size 138x121
            chunk 1 text run 1 at (30.00,90.00) startOffset 0 endOffset 2 width 88.32: "SV"
            chunk 1 text run 2 at (123.12,90.00) startOffset 2 endOffset 3 width 44.04: "G"
        RenderSVGPath {rect} at (126,99) size 234x126 [fill={[type=SOLID] [color=#820032]}] [x=70.00] [y=55.00] [width=130.00] [height=70.00]
        RenderSVGImage {image} at (291,135) size 145x144
    RenderSVGText {text} at (10,301) size 270x53 contains 1 chunk(s)
      RenderSVGInlineText {#text} at (0,0) size 270x53
        chunk 1 text run 1 at (10.00,340.00) startOffset 0 endOffset 16 width 270.00: "$Revision: 1.6 $"
    RenderSVGPath {rect} at (0,0) size 480x360 [stroke={[type=SOLID] [color=#000000]}] [x=1.00] [y=1.00] [width=478.00] [height=358.00]
