layer at (0,0) size 800x600
  RenderView at (0,0) size 800x600
layer at (0,0) size 800x600
  RenderSVGRoot {svg} at (45,0) size 380x65
    RenderSVGContainer {g} at (45,0) size 195x65
      RenderSVGPath {svg:line} at (45,0) size 10x65 [stroke={[type=SOLID] [color=#008000]}] [fill={[type=SOLID] [color=#000000]}] [x1=10.00] [y1=0.95] [x2=10.00] [y2=12.17]
      RenderSVGPath {svg:line} at (230,0) size 10x65 [stroke={[type=SOLID] [color=#008000]}] [fill={[type=SOLID] [color=#000000]}] [x1=47.20] [y1=0.95] [x2=47.20] [y2=12.17]
      RenderSVGPath {svg:rect} at (50,0) size 190x65 [fill={[type=SOLID] [color=#FF0000] [opacity=0.40]}] [x=10.00] [y=0.95] [width=37.20] [height=11.17]
    RenderSVGText {text} at (10,0) size 75x13 contains 1 chunk(s)
      RenderSVGInlineText {#text} at (0,0) size 75x13
        chunk 1 text run 1 at (10.00,10.00) startOffset 0 endOffset 1 width 6.20: "T"
        chunk 1 text run 1 at (20.00,10.00) startOffset 0 endOffset 1 width 5.60: "h"
        chunk 1 text run 1 at (40.00,10.00) startOffset 0 endOffset 12 width 44.60: "is is a test"
selection start: position 0 of child 0 {#text} of child 5 {text} of child 0 {svg} of document
selection end:   position 4 of child 0 {#text} of child 5 {text} of child 0 {svg} of document
