layer at (0,0) size 480x360
  RenderView at (0,0) size 480x360
layer at (0,0) size 480x360
  RenderSVGRoot {svg} at (0,0) size 480x360
    RenderSVGContainer {g} at (56,11) size 359x173 [transform={m=((0.80,0.00)(0.00,0.80)) t=(40.00,0.00)}]
      RenderSVGPath {path} at (57,12) size 57x111 [stroke={[type=SOLID] [color=#000000]}] [fill={[type=SOLID] [color=#CCCCCC]}] [data="M 26.5 32.5 L 33.5 32.5 L 40.5 29.5 L 47.5 23.5 L 61.5 17.5 L 73.5 16.5 L 74.5 33.5 L 73.5 50.5 L 73.5 64.5 L 72.5 77.5 L 72.5 90.5 L 72.5 105.5 L 71.5 126.5 L 89.5 128.5 L 90.5 138.5 L 89.5 151.5 L 72.5 151.5 L 54.5 152.5 L 38.5 152.5 L 27.5 152.5 L 28.5 139.5 L 30.5 127.5 L 44.5 125.5 L 46.5 112.5 L 47.5 99.5 L 46.5 87.5 L 48.5 73.5 L 48.5 53.5 L 34.5 52.5 L 22.5 52.5 L 22.5 51.5 L 22.5 41.5 L 22.5 33.5 Z"]
      RenderSVGPath {path} at (125,12) size 96x109 [stroke={[type=SOLID] [color=#000000]}] [fill={[type=SOLID] [color=#CCCCCC]}] [data="M 108.5 38.5 L 123.5 26.5 L 148.5 16.5 L 172.5 17.5 L 188.5 19.5 L 202.5 23.5 L 206.5 26.5 L 210.5 37.5 L 213.5 44.5 L 215.5 57.5 L 209.5 68.5 L 203.5 81.5 L 187.5 98.5 L 164.5 120.5 L 206.5 121.5 L 224.5 121.5 L 220.5 149.5 L 194.5 147.5 L 181.5 147.5 L 167.5 146.5 L 150.5 147.5 L 133.5 149.5 L 117.5 148.5 L 117.5 136.5 L 118.5 124.5 L 133.5 115.5 L 151.5 97.5 L 170.5 78.5 L 186.5 59.5 L 179.5 43.5 L 159.5 35.5 L 139.5 40.5 L 125.5 49.5 Z"]
      RenderSVGPath {path} at (237,14) size 71x107 [stroke={[type=SOLID] [color=#000000]}] [fill={[type=SOLID] [color=#CCCCCC]}] [data="M 248.5 38.5 L 276.5 22.5 L 298.5 19.5 L 316.5 26.5 L 332.5 40.5 L 331.5 57.5 L 322.5 70.5 L 307.5 76.5 L 314.5 80.5 L 324.5 86.5 L 333.5 99.5 L 333.5 121.5 L 327.5 130.5 L 312.5 143.5 L 292.5 149.5 L 270.5 148.5 L 248.5 142.5 L 252.5 114.5 L 267.5 119.5 L 282.5 119.5 L 297.5 115.5 L 304.5 109.5 L 295.5 99.5 L 284.5 92.5 L 277.5 84.5 L 270.5 74.5 L 281.5 66.5 L 293.5 60.5 L 297.5 50.5 L 292.5 45.5 L 281.5 45.5 L 274.5 49.5 L 266.5 53.5 Z"]
      RenderSVGPath {path} at (332,12) size 83x113 [stroke={[type=SOLID] [color=#000000]}] [fill={[type=SOLID] [color=#CCCCCC]}] [data="M 427.5 17.5 L 439.5 15.5 L 449.5 15.5 L 449.5 29.5 L 447.5 44.5 L 447.5 59.5 L 465.5 60.5 L 466.5 74.5 L 465.5 89.5 L 450.5 87.5 L 449.5 102.5 L 449.5 123.5 L 449.5 140.5 L 449.5 153.5 L 420.5 154.5 L 421.5 137.5 L 420.5 123.5 L 420.5 111.5 L 419.5 99.5 L 392.5 97.5 L 367.5 99.5 L 366.5 79.5 L 367.5 69.5 L 376.5 43.5 L 381.5 27.5 L 384.5 17.5 L 412.5 16.5 L 406.5 36.5 L 400.5 49.5 L 394.5 70.5 L 419.5 71.5 L 423.5 49.5 L 424.5 33.5 Z"]
      RenderSVGPath {circle} at (56,136) size 48x48 [fill={[type=SOLID] [color=#CCCCCC]}] [cx=50.00] [cy=200.00] [r=30.00]
      RenderSVGPath {circle} at (154,136) size 49x48 [fill={[type=SOLID] [color=#CCCCCC]}] [cx=173.00] [cy=200.00] [r=30.00]
      RenderSVGPath {circle} at (253,136) size 49x48 [fill={[type=SOLID] [color=#CCCCCC]}] [cx=297.00] [cy=200.00] [r=30.00]
      RenderSVGPath {circle} at (352,136) size 48x48 [fill={[type=SOLID] [color=#CCCCCC]}] [cx=420.00] [cy=200.00] [r=30.00]
      RenderSVGPath {path} at (56,11) size 59x113 [stroke={[type=SOLID] [color=#000000] [stroke width=4.00]}] [fill={[type=SOLID] [color=#CC0066]}] [data="M 26.5 32.5 L 33.5 32.5 L 40.5 29.5 L 47.5 23.5 L 61.5 17.5 L 73.5 16.5 L 74.5 33.5 L 73.5 50.5 L 73.5 64.5 L 72.5 77.5 L 72.5 90.5 L 72.5 105.5 L 71.5 126.5 L 89.5 128.5 L 90.5 138.5 L 89.5 151.5 L 72.5 151.5 L 54.5 152.5 L 38.5 152.5 L 27.5 152.5 L 28.5 139.5 L 30.5 127.5 L 44.5 125.5 L 46.5 112.5 L 47.5 99.5 L 46.5 87.5 L 48.5 73.5 L 48.5 53.5 L 34.5 52.5 L 22.5 52.5 L 22.5 51.5 L 22.5 41.5 L 22.5 33.5 Z"]
      RenderSVGPath {circle} at (56,136) size 48x48 [fill={[type=SOLID] [color=#CC0066]}] [cx=50.00] [cy=200.00] [r=30.00]
    RenderSVGText {text} at (5,199) size 414x33 contains 1 chunk(s)
      RenderSVGInlineText {#text} at (0,0) size 414x33
        chunk 1 text run 1 at (5.00,225.00) startOffset 0 endOffset 21 width 229.00: "Animation on the 'd' "
        chunk 1 text run 1 at (234.00,225.00) startOffset 0 endOffset 18 width 185.00: "attribute of path."
    RenderSVGText {text} at (5,239) size 316x20 contains 1 chunk(s)
      RenderSVGInlineText {#text} at (0,0) size 316x20
        chunk 1 text run 1 at (5.00,255.00) startOffset 0 endOffset 45 width 316.00: "Digit should match outline at indicated time."
    RenderSVGText {text} at (5,259) size 370x20 contains 1 chunk(s)
      RenderSVGInlineText {#text} at (0,0) size 370x20
        chunk 1 text run 1 at (5.00,275.00) startOffset 0 endOffset 54 width 370.00: "Filled circle should follow morphing digit discretely."
    RenderSVGText {text} at (10,304) size 261x46 contains 1 chunk(s)
      RenderSVGInlineText {#text} at (0,0) size 261x46
        chunk 1 text run 1 at (10.00,340.00) startOffset 0 endOffset 16 width 261.00: "$Revision: 1.7 $"
    RenderSVGPath {rect} at (0,0) size 480x360 [stroke={[type=SOLID] [color=#000000]}] [x=1.00] [y=1.00] [width=478.00] [height=358.00]
