layer at (0,0) size 480x360
  RenderView at (0,0) size 480x360
layer at (0,0) size 480x360
  RenderSVGRoot {svg} at (0,0) size 480x360
    RenderSVGContainer {g} at (109,10) size 211x320
      RenderSVGHiddenContainer {defs} at (0,0) size 0x0
        RenderSVGResourceFilter {filter} [id="FOMTest"] [filterUnits=objectBoundingBox] [primitiveUnits=userSpaceOnUse]
          [feMerge mergeNodes="4"]
            [feComposite operation="IN"]
              [feFlood flood-color="#408000" flood-opacity="0.40"]
              [feOffset dx="120.00" dy="90.00"]
                [SourceGraphic]
            [feComposite operation="IN"]
              [feFlood flood-color="#408000" flood-opacity="0.60"]
              [feOffset dx="80.00" dy="60.00"]
                [SourceGraphic]
            [feComposite operation="IN"]
              [feFlood flood-color="#408000" flood-opacity="0.80"]
              [feOffset dx="40.00" dy="30.00"]
                [SourceGraphic]
            [SourceGraphic]
      RenderSVGPath {circle} at (120,10) size 200x320 [fill={[type=SOLID] [color=#000000]}] [cx=160.00] [cy=50.00] [r=40.00]
        [filter="FOMTest"] RenderSVGResourceFilter {filter} at (120,10) size 200x320
      RenderSVGPath {path} at (109,79) size 22x22 [transform={m=((1.00,0.00)(0.00,1.00)) t=(120.00,90.00)}] [fill={[type=SOLID] [color=#000000]}] [data="M -1 -11 L 1 -11 L 1 -1 L 11 -1 L 11 1 L 1 1 L 1 11 L -1 11 L -1 1 L -11 1 L -11 -1 L -1 -1 L -1 -11"]
      RenderSVGPath {path} at (149,109) size 22x22 [transform={m=((1.00,0.00)(0.00,1.00)) t=(160.00,120.00)}] [fill={[type=SOLID] [color=#408000] [opacity=0.80]}] [data="M -1 -11 L 1 -11 L 1 -1 L 11 -1 L 11 1 L 1 1 L 1 11 L -1 11 L -1 1 L -11 1 L -11 -1 L -1 -1 L -1 -11"]
      RenderSVGPath {path} at (189,139) size 22x22 [transform={m=((1.00,0.00)(0.00,1.00)) t=(200.00,150.00)}] [fill={[type=SOLID] [color=#408000] [opacity=0.60]}] [data="M -1 -11 L 1 -11 L 1 -1 L 11 -1 L 11 1 L 1 1 L 1 11 L -1 11 L -1 1 L -11 1 L -11 -1 L -1 -1 L -1 -11"]
      RenderSVGPath {path} at (229,169) size 22x22 [transform={m=((1.00,0.00)(0.00,1.00)) t=(240.00,180.00)}] [fill={[type=SOLID] [color=#408000] [opacity=0.40]}] [data="M -1 -11 L 1 -11 L 1 -1 L 11 -1 L 11 1 L 1 1 L 1 11 L -1 11 L -1 1 L -11 1 L -11 -1 L -1 -1 L -1 -11"]
    RenderSVGText {text} at (10,304) size 261x46 contains 1 chunk(s)
      RenderSVGInlineText {#text} at (0,0) size 261x46
        chunk 1 text run 1 at (10.00,340.00) startOffset 0 endOffset 16 width 261.00: "$Revision: 1.3 $"
    RenderSVGPath {rect} at (0,0) size 480x360 [stroke={[type=SOLID] [color=#000000]}] [x=1.00] [y=1.00] [width=478.00] [height=358.00]
