layer at (0,0) size 784x1144
  RenderView at (0,0) size 784x600
layer at (0,0) size 784x1144
  RenderBlock {HTML} at (0,0) size 784x1144
    RenderBody {BODY} at (8,8) size 768x1128
      RenderTable {TABLE} at (0,0) size 4x1078
      RenderTable {TABLE} at (0,1078) size 110x28
        RenderTableSection {TBODY} at (0,0) size 110x28
          RenderTableRow {TR} at (0,2) size 110x24
            RenderTableCell {TD} at (2,2) size 106x24 [r=0 c=0 rs=1 cs=1]
              RenderText {#text} at (1,1) size 104x22
                text run at (1,1) width 104: "I'm down here!"
      RenderBlock (anonymous) at (0,1106) size 768x22
        RenderText {#text} at (0,0) size 60x22
          text run at (0,0) width 60: "The end."
