layer at (0,0) size 800x600
  RenderView at (0,0) size 800x600
layer at (0,0) size 800x51
  RenderBlock {HTML} at (0,0) size 800x51
    RenderBlock (anonymous) at (0,0) size 800x0
      RenderInline {BOGUS} at (0,0) size 0x0
    RenderBlock (anonymous) at (0,16) size 800x19
      RenderBody {BODY} at (8,0) size 784x19
        RenderBlock {P} at (0,0) size 784x19
          RenderText {#text} at (0,0) size 334x19
            text run at (0,0) width 334: "This line should be green and there should be no red."
    RenderBlock (anonymous) at (0,51) size 800x0
      RenderInline {BOGUS} at (0,0) size 0x0
